{
    "photos": {
        "page": 1,
        "pages": 100,
        "perpage": 10,
        "total": "1000",
        "photo": [
            {
                "id": "48914994373",
                "owner": "123597211@N03",
                "secret": "3768e07770",
                "server": "65535",
                "farm": 66,
                "title": "Texas-Klapperschlange (Lat. Crotalus atrox)",
                "ispublic": 1,
                "isfriend": 0,
                "isfamily": 0
            },
            {
                "id": "48914994383",
                "owner": "184060530@N02",
                "secret": "3e70cdb299",
                "server": "65535",
                "farm": 66,
                "title": "2nd 100 strangers",
                "ispublic": 1,
                "isfriend": 0,
                "isfamily": 0
            },
            {
                "id": "48914994428",
                "owner": "143934674@N08",
                "secret": "ef0f9b2af6",
                "server": "65535",
                "farm": 66,
                "title": "Home",
                "ispublic": 1,
                "isfriend": 0,
                "isfamily": 0
            },
            {
                "id": "48914994463",
                "owner": "162401302@N07",
                "secret": "87db672f63",
                "server": "65535",
                "farm": 66,
                "title": "",
                "ispublic": 1,
                "isfriend": 0,
                "isfamily": 0
            },
            {
                "id": "48914994928",
                "owner": "88850631@N02",
                "secret": "67b1545499",
                "server": "65535",
                "farm": 66,
                "title": "Lots of leaves and mistakes",
                "ispublic": 1,
                "isfriend": 0,
                "isfamily": 0
            },
            {
                "id": "48914995293",
                "owner": "184909377@N07",
                "secret": "39bb842361",
                "server": "65535",
                "farm": 66,
                "title": "Ten Reasons You Should Fall In Love With Dsquared7 | Dsquared7",
                "ispublic": 1,
                "isfriend": 0,
                "isfamily": 0
            },
            {
                "id": "48915520346",
                "owner": "106939048@N03",
                "secret": "067f61d230",
                "server": "65535",
                "farm": 66,
                "title": "6 legs are better than 5.",
                "ispublic": 1,
                "isfriend": 0,
                "isfamily": 0
            },
            {
                "id": "48915521136",
                "owner": "184262673@N05",
                "secret": "45c1c12a14",
                "server": "65535",
                "farm": 66,
                "title": "IMG_7910.JPG",
                "ispublic": 1,
                "isfriend": 0,
                "isfamily": 0
            },
            {
                "id": "48915725977",
                "owner": "161142641@N05",
                "secret": "c94249522a",
                "server": "65535",
                "farm": 66,
                "title": "03 septembre n°32 - A025539-R1-38-39.jpg",
                "ispublic": 1,
                "isfriend": 0,
                "isfamily": 0
            },
            {
                "id": "48915726857",
                "owner": "184957977@N05",
                "secret": "a6455cc411",
                "server": "65535",
                "farm": 66,
                "title": "",
                "ispublic": 1,
                "isfriend": 0,
                "isfamily": 0
            }
        ]
    },
    "stat": "ok"
}