{
    "photos": {
        "page": 1,
        "pages": 21389,
        "perpage": 10,
        "total": "213884",
        "photo": [
            {
                "id": "48915412511",
                "owner": "184963292@N05",
                "secret": "83c58811c2",
                "server": "65535",
                "farm": 66,
                "title": "Eliminate Your Fears And Doubts About Eryngium Big Blue | Eryngium Big Blue",
                "ispublic": 1,
                "isfriend": 0,
                "isfamily": 0
            },
            {
                "id": "48915619852",
                "owner": "184963292@N05",
                "secret": "fedb058a5a",
                "server": "65535",
                "farm": 66,
                "title": "What Makes Blue Balloon Flower So Addictive That You Never Want To Miss One? | Blue Balloon Flower",
                "ispublic": 1,
                "isfriend": 0,
                "isfamily": 0
            },
            {
                "id": "48914876218",
                "owner": "185060925@N08",
                "secret": "6ca43fd03f",
                "server": "65535",
                "farm": 66,
                "title": "Eliminate Your Fears And Doubts About Eryngium Big Blue | Eryngium Big Blue",
                "ispublic": 1,
                "isfriend": 0,
                "isfamily": 0
            },
            {
                "id": "48915400206",
                "owner": "185060925@N08",
                "secret": "48a40f77bf",
                "server": "65535",
                "farm": 66,
                "title": "What Makes Blue Balloon Flower So Addictive That You Never Want To Miss One? | Blue Balloon Flower",
                "ispublic": 1,
                "isfriend": 0,
                "isfamily": 0
            },
            {
                "id": "48915600507",
                "owner": "184969658@N06",
                "secret": "6843d2bcc2",
                "server": "65535",
                "farm": 66,
                "title": "9 Signs You’re In Love With Rhinestone Cake Toppers | Rhinestone Cake Toppers",
                "ispublic": 1,
                "isfriend": 0,
                "isfamily": 0
            },
            {
                "id": "48915600377",
                "owner": "184969658@N06",
                "secret": "3f49f3e971",
                "server": "65535",
                "farm": 66,
                "title": "Why Is Sour Cream White Cake So Famous? | Sour Cream White Cake",
                "ispublic": 1,
                "isfriend": 0,
                "isfamily": 0
            },
            {
                "id": "48915598042",
                "owner": "184888674@N02",
                "secret": "d846329f38",
                "server": "65535",
                "farm": 66,
                "title": "Eliminate Your Fears And Doubts About Eryngium Big Blue | Eryngium Big Blue",
                "ispublic": 1,
                "isfriend": 0,
                "isfamily": 0
            },
            {
                "id": "48915390411",
                "owner": "185005005@N04",
                "secret": "5e1703eecb",
                "server": "65535",
                "farm": 66,
                "title": "Eliminate Your Fears And Doubts About Eryngium Big Blue | Eryngium Big Blue",
                "ispublic": 1,
                "isfriend": 0,
                "isfamily": 0
            },
            {
                "id": "48914865958",
                "owner": "185005005@N04",
                "secret": "925afc85b6",
                "server": "65535",
                "farm": 66,
                "title": "What Makes Blue Balloon Flower So Addictive That You Never Want To Miss One? | Blue Balloon Flower",
                "ispublic": 1,
                "isfriend": 0,
                "isfamily": 0
            },
            {
                "id": "48915388716",
                "owner": "185040771@N03",
                "secret": "20cab31c5e",
                "server": "65535",
                "farm": 66,
                "title": "Chimarrão",
                "ispublic": 1,
                "isfriend": 0,
                "isfamily": 0
            }
        ]
    },
    "stat": "ok"
}